…
``` r
locality_sampling <- locality_sampling %>% 
    separate(eventTime, 
           c("start_time", "end_time"), 
           sep = "/") %>% 
  mutate(start_time = as.POSIXct(start_time),
         end_time = as.POSIXct(end_time))


locality_sampling %>% 
  select(start_time,
         end_time)
```

    # A tibble: 986 × 2
       start_time          end_time           
       <dttm>              <dttm>             
     1 2022-07-06 02:00:00 2022-07-21 02:00:00
     2 2022-09-26 02:00:00 2022-10-08 02:00:00
     3 2021-07-16 02:00:00 2021-07-27 02:00:00
     4 2022-08-10 02:00:00 2022-08-22 02:00:00
     5 2022-09-26 02:00:00 2022-10-11 02:00:00
     6 2020-06-24 02:00:00 2020-07-07 02:00:00
     7 2022-07-22 02:00:00 2022-08-04 02:00:00
     8 NA                  NA                 
     9 2020-07-22 02:00:00 2020-08-05 02:00:00
    10 NA                  NA                 
    # ℹ 976 more rows
…
``` r
year_locality <- year_locality %>% 
    separate(eventTime, 
           c("start_time", "end_time"), 
           sep = "/") %>% 
  mutate(season_start_time = as.POSIXct(start_time),
         season_end_time = as.POSIXct(end_time)) %>%  
  mutate(ssbid = as.character(ssbid)) 

year_locality %>% 
  select(start_time,
         end_time)
```

    # A tibble: 100 × 2
       start_time             end_time              
       <chr>                  <chr>                 
     1 2022-06-10 02:00:00+02 2022-10-20 02:00:00+02
     2 2020-05-27 02:00:00+02 2020-09-14 02:00:00+02
     3 2020-05-12 02:00:00+02 2020-09-18 02:00:00+02
     4 <NA>                   <NA>                  
     5 <NA>                   <NA>                  
     6 2020-05-11 02:00:00+02 2020-09-16 02:00:00+02
     7 2022-05-12 02:00:00+02 2022-10-14 02:00:00+02
     8 2020-05-14 02:00:00+02 2020-09-15 02:00:00+02
     9 2022-06-09 02:00:00+02 2022-10-21 02:00:00+02
    10 2021-06-21 02:00:00+02 2021-10-06 02:00:00+02
    # ℹ 90 more rows
…
